Trace, Fast, Slow, Hybrid, Hybrid_IBL0, Hybrid_IBL1
Day80, 90, 0, 0, 18, 18
Day29, 90, 0, 1, 18, 18
Day73, 90, 0, 7, 23, 23
Day81, 90, 0, 1, 18, 18
Day28, 90, 0, 0, 18, 18
Day51, 90, 0, 6, 21, 21
Day43, 90, 0, 0, 18, 18
Day49, 90, 0, 0, 18, 18
Day70, 90, 0, 1, 18, 18
Day90, 90, 0, 3, 18, 18
Day55, 90, 0, 1, 18, 18
Day92, 90, 0, 1, 18, 18
Day66, 90, 0, 4, 20, 20
Day71, 90, 0, 0, 18, 18
Day56, 90, 0, 0, 18, 18
Day65, 90, 0, 1, 19, 19
Day26, 90, 0, 1, 18, 18
Day17, 90, 0, 4, 21, 21
Day6, 90, 0, 3, 18, 18
Day47, 90, 0, 1, 19, 19
Day59, 90, 0, 3, 20, 20
Day12, 90, 0, 3, 18, 18
Day45, 90, 0, 3, 18, 18
Day79, 90, 0, 0, 18, 18
Day74, 90, 0, 1, 22, 22
Day41, 90, 0, 0, 18, 18
Day25, 90, 0, 2, 18, 18
Day83, 90, 0, 1, 18, 18
Day86, 90, 0, 6, 18, 18
Day91, 90, 0, 1, 18, 18
Day35, 90, 0, 0, 18, 18
Day7, 90, 0, 2, 18, 18
Day31, 90, 0, 0, 18, 18
Day10, 90, 0, 5, 18, 18
Day52, 90, 0, 3, 21, 19
Day30, 90, 0, 3, 18, 18
Day36, 90, 0, 0, 18, 18
Day77, 90, 0, 1, 18, 18
Day54, 90, 0, 1, 18, 18
Day76, 90, 0, 3, 18, 18
Day57, 90, 0, 3, 18, 18
Day27, 90, 0, 1, 18, 18
Day68, 90, 0, 0, 18, 18
Day19, 90, 0, 4, 18, 18
Day48, 90, 0, 4, 18, 18
Day44, 90, 0, 4, 18, 18
Day46, 90, 0, 4, 18, 18
Day8, 90, 0, 4, 18, 18
Day15, 90, 0, 4, 18, 18
Day58, 90, 0, 4, 19, 19
Day63, 90, 0, 2, 18, 18
Day39, 90, 0, 2, 18, 18
Day64, 90, 0, 0, 18, 18
Day84, 90, 0, 0, 18, 18
Day69, 90, 0, 12, 28, 28
Day16, 90, 0, 7, 18, 18
Day21, 90, 0, 3, 18, 18
Day85, 90, 0, 7, 18, 18
Day89, 90, 0, 4, 18, 18
Day61, 90, 0, 3, 19, 19
Day20, 90, 0, 8, 18, 18
Day88, 90, 0, 3, 18, 18
Day42, 90, 0, 0, 18, 18
Day37, 90, 0, 3, 18, 18
Day18, 90, 0, 7, 18, 18
Day62, 90, 0, 1, 22, 22
Day34, 90, 0, 1, 18, 18
Day38, 90, 0, 3, 18, 18
Day32, 90, 0, 5, 18, 18
Day60, 90, 0, 6, 21, 21
Day23, 90, 0, 11, 42, 42
Day72, 90, 0, 3, 18, 18
Day22, 90, 0, 1, 34, 34
Day11, 90, 0, 3, 18, 15
Day33, 90, 0, 0, 18, 18
Day53, 90, 0, 3, 18, 18
Day24, 90, 0, 5, 20, 20
Day50, 90, 0, 0, 18, 18
Day40, 90, 0, 1, 18, 18
Day14, 90, 0, 0, 18, 18
Day82, 90, 0, 3, 20, 20
Day87, 90, 0, 3, 18, 18
Day67, 90, 0, 0, 18, 18
Day75, 90, 0, 0, 18, 18
Day13, 90, 0, 3, 18, 18
Day9, 90, 0, 7, 18, 18
Day78, 90, 0, 2, 18, 18
